{
  "name": "todo",
  "type": "ionic1",
  "integrations": {
    "cordova": {}
  },
  "watchPatterns": [
    "scss/**/*",
    "www/**/*",
    "!www/lib/**/*",
    "!www/**/*.map"
  ],
  "app_id": ""
}
